{
    "packages": [
      {
        "name": "dedicatedcomputing",
        "maintainer": "Phil Spindler",
        "websiteURL": "https://gitlab.com/dedicated-computing/arduino-board-index",
        "email": "phillip.spindler@dedicatedcomputing.com",
        "help": {
          "online": "https://gitlab.com/dedicated-computing/arduino-board-index"
        },
        "platforms": [
          {
            "name": "Dedicated Computing SAMD Boards",
            "architecture": "samd",
            "version": "1.0.0",
            "category": "Dedicated Computing",
            "help": {
              "online": "https://gitlab.com/dedicated-computing/arduino-board-index"
            },
            "url": "https://gitlab.com/dedicated-computing/arduino-board-index/-/raw/master/boards/dedicatedcomputing-samd-1.0.0.tar.bz2",
            "archiveFileName": "dedicatedcomputing-samd-1.0.0.tar.bz2",
            "checksum": "SHA-256:2BF3D5D7388EAD1F97F551926F6816256EE74C4DBB2B207CB96D891B70728C01",
            "size": "1049796",
            "boards": [{ "name": "KM Emulator M4" }],
            "toolsDependencies": [
                {
                  "packager": "adafruit",
                  "name": "arm-none-eabi-gcc",
                  "version": "9-2019q4"
                },
                {
                  "packager": "arduino",
                  "name": "bossac",
                  "version": "1.7.0-arduino3"
                },
                {
                  "packager": "arduino",
                  "name": "bossac",
                  "version": "1.8.0-48-gb176eee"
                },
                {
                  "packager": "arduino",
                  "name": "openocd",
                  "version": "0.10.0-arduino7"
                },
                {
                  "packager": "adafruit",
                  "name": "CMSIS",
                  "version": "5.4.0"
                },
                {
                  "packager": "arduino",
                  "name": "CMSIS-Atmel",
                  "version": "1.2.0"
                }
              ]
          },
          {
            "name": "Dedicated Computing SAMD Boards",
            "architecture": "samd",
            "version": "1.0.1",
            "category": "Dedicated Computing",
            "help": {
              "online": "https://gitlab.com/dedicated-computing/arduino-board-index"
            },
            "url": "https://gitlab.com/dedicated-computing/arduino-board-index/-/raw/master/boards/dedicatedcomputing-samd-1.0.1.tar.bz2",
            "archiveFileName": "dedicatedcomputing-samd-1.0.1.tar.bz2",
            "checksum": "SHA-256:2C7BE8975974115D2A0625614B278EAE1E28CBEB4647C6DAD04416CD2508247B",
            "size": "1049982",
            "boards": [{ "name": "KM Emulator M4" }],
            "toolsDependencies": [
                {
                  "packager": "adafruit",
                  "name": "arm-none-eabi-gcc",
                  "version": "9-2019q4"
                },
                {
                  "packager": "arduino",
                  "name": "bossac",
                  "version": "1.7.0-arduino3"
                },
                {
                  "packager": "arduino",
                  "name": "bossac",
                  "version": "1.8.0-48-gb176eee"
                },
                {
                  "packager": "arduino",
                  "name": "openocd",
                  "version": "0.10.0-arduino7"
                },
                {
                  "packager": "adafruit",
                  "name": "CMSIS",
                  "version": "5.4.0"
                },
                {
                  "packager": "arduino",
                  "name": "CMSIS-Atmel",
                  "version": "1.2.0"
                }
              ]
          },
          {
            "name": "Dedicated Computing SAMD Boards",
            "architecture": "samd",
            "version": "1.0.2",
            "category": "Dedicated Computing",
            "help": {
              "online": "https://gitlab.com/dedicated-computing/arduino-board-index"
            },
            "url": "https://gitlab.com/dedicated-computing/arduino-board-index/-/raw/master/boards/dedicatedcomputing-samd-1.0.2.tar.bz2",
            "archiveFileName": "dedicatedcomputing-samd-1.0.2.tar.bz2",
            "checksum": "SHA-256:1d5cf94976cd2cff9727d4d3cd38fb6f5a7cf28e884d245404de00f397ec4d5e",
            "size": "1039287",
            "boards": [{ "name": "KM Emulator M4" }],
            "toolsDependencies": [
                {
                  "packager": "adafruit",
                  "name": "arm-none-eabi-gcc",
                  "version": "9-2019q4"
                },
                {
                  "packager": "arduino",
                  "name": "bossac",
                  "version": "1.7.0-arduino3"
                },
                {
                  "packager": "arduino",
                  "name": "bossac",
                  "version": "1.8.0-48-gb176eee"
                },
                {
                  "packager": "arduino",
                  "name": "openocd",
                  "version": "0.10.0-arduino7"
                },
                {
                  "packager": "adafruit",
                  "name": "CMSIS",
                  "version": "5.4.0"
                },
                {
                  "packager": "arduino",
                  "name": "CMSIS-Atmel",
                  "version": "1.2.0"
                }
              ]
          },
          {
            "name": "Dedicated Computing SAMD Boards",
            "architecture": "samd",
            "version": "1.0.3",
            "category": "Dedicated Computing",
            "help": {
              "online": "https://gitlab.com/dedicated-computing/arduino-board-index"
            },
            "url": "https://gitlab.com/dedicated-computing/arduino-board-index/-/raw/master/boards/dedicatedcomputing-samd-1.0.3.tar.bz2",
            "archiveFileName": "dedicatedcomputing-samd-1.0.3.tar.bz2",
            "checksum": "SHA-256:0e2ac6d576761d0d023feeea52072bd119adb2e030acccca9783473f9a6eec7f",
            "size": "1224508",
            "boards": [{ "name": "KM Emulator M4" }, { "name": "KM Emulator M0" }, { "name": "Seeeduino M0" }],
            "toolsDependencies": [
                {
                  "packager": "adafruit",
                  "name": "arm-none-eabi-gcc",
                  "version": "9-2019q4"
                },
                {
                  "packager": "arduino",
                  "name": "bossac",
                  "version": "1.7.0-arduino3"
                },
                {
                  "packager": "arduino",
                  "name": "bossac",
                  "version": "1.8.0-48-gb176eee"
                },
                {
                  "packager": "arduino",
                  "name": "openocd",
                  "version": "0.10.0-arduino7"
                },
                {
                  "packager": "adafruit",
                  "name": "CMSIS",
                  "version": "5.4.0"
                },
                {
                  "packager": "arduino",
                  "name": "CMSIS-Atmel",
                  "version": "1.2.0"
                }
              ]
          },
          {
            "name": "Dedicated Computing SAMD Boards",
            "architecture": "samd",
            "version": "1.0.4",
            "category": "Dedicated Computing",
            "help": {
              "online": "https://gitlab.com/dedicated-computing/arduino-board-index"
            },
            "url": "https://gitlab.com/dedicated-computing/arduino-board-index/-/raw/master/boards/dedicatedcomputing-samd-1.0.4.tar.bz2",
            "archiveFileName": "dedicatedcomputing-samd-1.0.4.tar.bz2",
            "checksum": "SHA-256:e36657ce940d1131a3fee80b9f632615106838de8c4032e09c9deb3ce7739d22",
            "size": "1393366",
            "boards": [{ "name": "KM Emulator M4" }, { "name": "KM Emulator M0" }, { "name": "Seeeduino M0" }],
            "toolsDependencies": [
                {
                  "packager": "adafruit",
                  "name": "arm-none-eabi-gcc",
                  "version": "9-2019q4"
                },
                {
                  "packager": "arduino",
                  "name": "bossac",
                  "version": "1.7.0-arduino3"
                },
                {
                  "packager": "arduino",
                  "name": "bossac",
                  "version": "1.8.0-48-gb176eee"
                },
                {
                  "packager": "arduino",
                  "name": "openocd",
                  "version": "0.10.0-arduino7"
                },
                {
                  "packager": "adafruit",
                  "name": "CMSIS",
                  "version": "5.4.0"
                },
                {
                  "packager": "arduino",
                  "name": "CMSIS-Atmel",
                  "version": "1.2.0"
                }
              ]
          },
          {
            "name": "Dedicated Computing SAMD Boards",
            "architecture": "samd",
            "version": "1.0.5",
            "category": "Dedicated Computing",
            "help": {
              "online": "https://gitlab.com/dedicated-computing/arduino-board-index"
            },
            "url": "https://gitlab.com/dedicated-computing/arduino-board-index/-/raw/master/boards/dedicatedcomputing-samd-1.0.5.tar.bz2",
            "archiveFileName": "dedicatedcomputing-samd-1.0.5.tar.bz2",
            "checksum": "SHA-256:f08d8473fae4ed10902919235c9e35ffc041ed216e885c2709bf2b64e6f9024d",
            "size": "1593822",
            "boards": [{ "name": "KM Emulator M4" }, { "name": "KM Emulator M0" }, { "name": "Seeeduino M0" }],
            "toolsDependencies": [
                {
                  "packager": "adafruit",
                  "name": "arm-none-eabi-gcc",
                  "version": "9-2019q4"
                },
                {
                  "packager": "arduino",
                  "name": "bossac",
                  "version": "1.7.0-arduino3"
                },
                {
                  "packager": "arduino",
                  "name": "bossac",
                  "version": "1.8.0-48-gb176eee"
                },
                {
                  "packager": "arduino",
                  "name": "openocd",
                  "version": "0.10.0-arduino7"
                },
                {
                  "packager": "adafruit",
                  "name": "CMSIS",
                  "version": "5.4.0"
                },
                {
                  "packager": "arduino",
                  "name": "CMSIS-Atmel",
                  "version": "1.2.0"
                }
              ]
          },
          {
            "name": "Dedicated Computing SAMD Boards",
            "architecture": "samd",
            "version": "1.0.6",
            "category": "Dedicated Computing",
            "help": {
              "online": "https://gitlab.com/dedicated-computing/arduino-board-index"
            },
            "url": "https://gitlab.com/dedicated-computing/arduino-board-index/-/raw/master/boards/dedicatedcomputing-samd-1.0.6.tar.bz2",
            "archiveFileName": "dedicatedcomputing-samd-1.0.6.tar.bz2",
            "checksum": "SHA-256:f08d8473fae4ed10902919235c9e35ffc041ed216e885c2709bf2b64e6f9024d",
            "size": "1593822",
            "boards": [{ "name": "IGX Front Panel" }, { "name": "KM Emulator M4" }, { "name": "KM Emulator M0" }, { "name": "Seeeduino M0" }],
            "toolsDependencies": [
                {
                  "packager": "adafruit",
                  "name": "arm-none-eabi-gcc",
                  "version": "9-2019q4"
                },
                {
                  "packager": "arduino",
                  "name": "bossac",
                  "version": "1.7.0-arduino3"
                },
                {
                  "packager": "arduino",
                  "name": "bossac",
                  "version": "1.8.0-48-gb176eee"
                },
                {
                  "packager": "arduino",
                  "name": "openocd",
                  "version": "0.10.0-arduino7"
                },
                {
                  "packager": "adafruit",
                  "name": "CMSIS",
                  "version": "5.4.0"
                },
                {
                  "packager": "arduino",
                  "name": "CMSIS-Atmel",
                  "version": "1.2.0"
                }
              ]
          }
        ],
        "tools": [
          {
            "name": "CMSIS",
            "version": "5.4.0",
            "systems": [
              {
                "host": "i686-mingw32",
                "url": "https://github.com/ARM-software/CMSIS_5/archive/5.4.0.tar.gz",
                "archiveFileName": "CMSIS_5-5.4.0-adafruit.tar.gz",
                "checksum": "SHA-256:93d09907ceb23a520ef65e6b5014d2e866efa6b7f5fe5d8828b29bbc54dec697",
                "size": "153772853"
              },
              {
                "host": "x86_64-apple-darwin",
                "url": "https://github.com/ARM-software/CMSIS_5/archive/5.4.0.tar.gz",
                "archiveFileName": "CMSIS_5-5.4.0-adafruit.tar.gz",
                "checksum": "SHA-256:93d09907ceb23a520ef65e6b5014d2e866efa6b7f5fe5d8828b29bbc54dec697",
                "size": "153772853"
              },
              {
                "host": "x86_64-pc-linux-gnu",
                "url": "https://github.com/ARM-software/CMSIS_5/archive/5.4.0.tar.gz",
                "archiveFileName": "CMSIS_5-5.4.0-adafruit.tar.gz",
                "checksum": "SHA-256:93d09907ceb23a520ef65e6b5014d2e866efa6b7f5fe5d8828b29bbc54dec697",
                "size": "153772853"
              },
              {
                "host": "i686-pc-linux-gnu",
                "url": "https://github.com/ARM-software/CMSIS_5/archive/5.4.0.tar.gz",
                "archiveFileName": "CMSIS_5-5.4.0-adafruit.tar.gz",
                "checksum": "SHA-256:93d09907ceb23a520ef65e6b5014d2e866efa6b7f5fe5d8828b29bbc54dec697",
                "size": "153772853"
              },
              {
                "host": "arm-linux-gnueabihf",
                "url": "https://github.com/ARM-software/CMSIS_5/archive/5.4.0.tar.gz",
                "archiveFileName": "CMSIS_5-5.4.0-adafruit.tar.gz",
                "checksum": "SHA-256:93d09907ceb23a520ef65e6b5014d2e866efa6b7f5fe5d8828b29bbc54dec697",
                "size": "153772853"
              },
              {
                "host": "aarch64-linux-gnu",
                "url": "https://github.com/ARM-software/CMSIS_5/archive/5.4.0.tar.gz",
                "archiveFileName": "CMSIS_5-5.4.0-adafruit.tar.gz",
                "checksum": "SHA-256:93d09907ceb23a520ef65e6b5014d2e866efa6b7f5fe5d8828b29bbc54dec697",
                "size": "153772853"
              },
              {
                "host": "all",
                "url": "https://github.com/ARM-software/CMSIS_5/archive/5.4.0.tar.gz",
                "archiveFileName": "CMSIS_5-5.4.0-adafruit.tar.gz",
                "checksum": "SHA-256:93d09907ceb23a520ef65e6b5014d2e866efa6b7f5fe5d8828b29bbc54dec697",
                "size": "153772853"
              }
            ]
          },
          {
            "name": "arm-none-eabi-gcc",
            "version": "9-2019q4",
            "systems": [
              {
                "host": "arm-linux-gnueabihf",
                "url": "http://downloads.arduino.cc/tools/gcc-arm-none-eabi-7-2019-q4-major-linuxarm.tar.bz2",
                "archiveFileName": "gcc-arm-none-eabi-7-2019-q4-major-linuxarm.tar.bz2",
                "checksum": "SHA-256:34180943d95f759c66444a40b032f7dd9159a562670fc334f049567de140c51b",
                "size": "96613739"
              },
              {
                "host": "aarch64-linux-gnu",
                "url": "https://developer.arm.com/-/media/Files/downloads/gnu-rm/9-2019q4/gcc-arm-none-eabi-9-2019-q4-major-aarch64-linux.tar.bz2",
                "archiveFileName": "gcc-arm-none-eabi-9-2019-q4-major-aarch64-linux.tar.bz2",
                "checksum": "MD5:0dfa059aae18fcf7d842e30c525076a4",
                "size": "128670769"
              },
              {
                "host": "i686-mingw32",
                "url": "https://github.com/adafruit/arduino-board-index/releases/download/build-tools/gcc-arm-none-eabi-9-2019-q4-major-win32.zip",
                "archiveFileName": "gcc-arm-none-eabi-9-2019-q4-major-win32.zip",
                "checksum": "MD5:9d60cbb0e358ab6a9d3c9e5dc3624dd2",
                "size": "153520070"
              },
              {
                "host": "x86_64-apple-darwin",
                "url": "https://developer.arm.com/-/media/Files/downloads/gnu-rm/9-2019q4/gcc-arm-none-eabi-9-2019-q4-major-mac.tar.bz2",
                "archiveFileName": "gcc-arm-none-eabi-9-2019-q4-major-mac.tar.bz2",
                "checksum": "MD5:241b64f0578db2cf146034fc5bcee3d4",
                "size": "116770520"
              },
              {
                "host": "x86_64-pc-linux-gnu",
                "url": "https://developer.arm.com/-/media/Files/downloads/gnu-rm/9-2019q4/gcc-arm-none-eabi-9-2019-q4-major-x86_64-linux.tar.bz2",
                "archiveFileName": "gcc-arm-none-eabi-9-2019-q4-major-x86_64-linux.tar.bz2",
                "checksum": "MD5:fe0029de4f4ec43cf7008944e34ff8cc",
                "size": "116802378"
              },
              {
                "host": "i686-pc-linux-gnu",
                "url": "http://downloads.arduino.cc/tools/gcc-arm-none-eabi-7-2018-q2-update-linux32.tar.bz2",
                "archiveFileName": "gcc-arm-none-eabi-7-2018-q2-update-linux32.tar.bz2",
                "checksum": "SHA-256:090a0bc2b1956bc49392dff924a6c30fa57c88130097b1972204d67a45ce3cf3",
                "size": "97427309"
              }
            ]
          }
        ]
      }
    ]
  }
  